posEntryMode,posEntry
UNKNOWN,UNKNOWN_PAN_ENTRY_MODE
MANUAL,MANUAL_ENTRY
BCR,BAR_CODE_READER
OCR,OPTICAL_CHARACTER_READER
ICC,INTEGRATED_CIRCUIT_CARD
ECOMMERCE,MANUAL_ENTRY_ELECTRONIC_COMMERCE
MANUAL2,MANUAL_ENTRY
CONTACTLESS_MAGNETIC_STRIPE,CONTACTLESS_MAGNETIC_STRIPE
